{
  "contentName": "Build With Params - XaaS v2",
  "uniqueId": "eb46cd28-afdd-48ac-b23b-0b230f8351ce",
  "contentType": "Automation-XaaSBlueprint",
  "keyValues": {"iconId": "vcoIcon_256x256.png"},
  "descendents": [  {
    "contentName": "Build.With.Params.-.XaaS.v2-vro",
    "uniqueId": "Build.With.Params.-.XaaS.v2-vro",
    "contentType": "Orchestrator-Package",
    "files": [],
    "keyValues": {},
    "descendents": []
  }]
}