{
  "contentName": "Jenkins - Run Build (No Params)",
  "uniqueId": "5597fa62-a757-4cd8-83cc-533ae9a59df4",
  "contentType": "Automation-XaaSBlueprint",
  "keyValues": {"iconId": "vcoIcon_256x256.png"},
  "descendents": [  {
    "contentName": "Jenkins.-.Run.Build.(No.Params)-vro",
    "uniqueId": "Jenkins.-.Run.Build.(No.Params)-vro",
    "contentType": "Orchestrator-Package",
    "files": [],
    "keyValues": {},
    "descendents": []
  }]
}