{
  "contentName": "Extensibility.Lifecycle.Properties.vAppCloneWorkflow.vAppCloneWorkflow",
  "uniqueId": "Extensibility.Lifecycle.Properties.vAppCloneWorkflow.vAppCloneWorkflow",
  "contentType": "Automation-PropertyDefinition",
  "descendents": []
}