{
  "contentName": "Jenkins.-.Run.Build.With.Params.from.XaaS.Form-vro",
  "uniqueId": "Jenkins.-.Run.Build.With.Params.from.XaaS.Form-vro",
  "contentType": "Orchestrator-Package",
  "descendents": []
}