{
  "contentName": "Extensibility.Lifecycle.Properties.VMPSMasterWorkflow32.UnprovisionMachine",
  "uniqueId": "Extensibility.Lifecycle.Properties.VMPSMasterWorkflow32.UnprovisionMachine",
  "contentType": "Automation-PropertyDefinition",
  "descendents": []
}